<?xml version="1.0" encoding="UTF-8"?>
<testsuite name="apiauto.TestReqres" tests="6" skipped="0" failures="0" errors="0" timestamp="2025-02-01T10:42:43" hostname="fv-az1691-944" time="5.329">
  <properties/>
  <testcase name="testDeleteUser" classname="apiauto.TestReqres" time="2.242"/>
  <testcase name="testGetListUsers" classname="apiauto.TestReqres" time="1.066"/>
  <testcase name="testPatchUser" classname="apiauto.TestReqres" time="0.49"/>
  <testcase name="testPostCreateUser" classname="apiauto.TestReqres" time="0.221"/>
  <testcase name="testPutUser" classname="apiauto.TestReqres" time="0.456"/>
  <testcase name="testValidateJsonSchemaGetSingleUser" classname="apiauto.TestReqres" time="0.789"/>
  <system-out><![CDATA[Request method:	DELETE
Request URI:	https://reqres.in/api/users/4
Proxy:			<none>
Request params:	<none>
Query params:	<none>
Form params:	<none>
Path params:	<none>
Headers:		Accept=*/*
Cookies:		<none>
Multiparts:		<none>
Body:			<none>
HTTP/1.1 204 No Content
Date: Sat, 01 Feb 2025 10:42:45 GMT
Content-Length: 0
Connection: keep-alive
Report-To: {"group":"heroku-nel","max_age":3600,"endpoints":[{"url":"https://nel.heroku.com/reports?ts=1738406565&sid=c4c9725f-1ab0-44d8-820f-430df2718e11&s=6ImkUzo1HfO%2FC213vrG6Vu%2B7zEklI9P9mTX1y4kv950%3D"}]}
Reporting-Endpoints: heroku-nel=https://nel.heroku.com/reports?ts=1738406565&sid=c4c9725f-1ab0-44d8-820f-430df2718e11&s=6ImkUzo1HfO%2FC213vrG6Vu%2B7zEklI9P9mTX1y4kv950%3D
Nel: {"report_to":"heroku-nel","max_age":3600,"success_fraction":0.005,"failure_fraction":0.05,"response_headers":["Via"]}
X-Powered-By: Express
Access-Control-Allow-Origin: *
Etag: W/"2-vyGp6PvFo4RvsFtPoIWeCReyIC8"
Via: 1.1 vegur
cf-cache-status: DYNAMIC
Server: cloudflare
CF-RAY: 90b156288aa86209-ORD
server-timing: cfL4;desc="?proto=TCP&rtt=1756&min_rtt=1666&rtt_var=689&sent=7&recv=7&lost=0&retrans=0&sent_bytes=3106&recv_bytes=762&delivery_rate=2571428&cwnd=252&unsent_bytes=0&cid=e7d85285a28b72cd&ts=337&x=0"
HTTP/1.1 200 OK
Date: Sat, 01 Feb 2025 10:42:45 GMT
Content-Type: application/json; charset=utf-8
Transfer-Encoding: chunked
Connection: keep-alive
Report-To: {"group":"heroku-nel","max_age":3600,"endpoints":[{"url":"https://nel.heroku.com/reports?ts=1738330682&sid=c4c9725f-1ab0-44d8-820f-430df2718e11&s=HPwSrm7SL3QTemxggUbqOQIAaW794rjvkryDpQlzfRw%3D"}]}
Reporting-Endpoints: heroku-nel=https://nel.heroku.com/reports?ts=1738330682&sid=c4c9725f-1ab0-44d8-820f-430df2718e11&s=HPwSrm7SL3QTemxggUbqOQIAaW794rjvkryDpQlzfRw%3D
Nel: {"report_to":"heroku-nel","max_age":3600,"success_fraction":0.005,"failure_fraction":0.05,"response_headers":["Via"]}
X-Powered-By: Express
Access-Control-Allow-Origin: *
Etag: W/"440-ZjsmMKR8P3usr2uJZbOCGCxC3Uw"
Via: 1.1 vegur
Cache-Control: max-age=14400
CF-Cache-Status: REVALIDATED
Vary: Accept-Encoding
Server: cloudflare
CF-RAY: 90b1562adcf210e5-ORD
Content-Encoding: gzip
server-timing: cfL4;desc="?proto=TCP&rtt=1776&min_rtt=1646&rtt_var=710&sent=6&recv=7&lost=0&retrans=0&sent_bytes=3107&recv_bytes=764&delivery_rate=2602673&cwnd=252&unsent_bytes=0&cid=86025d07bed599f3&ts=195&x=0"

{
    "page": 2,
    "per_page": 6,
    "total": 12,
    "total_pages": 2,
    "data": [
        {
            "id": 7,
            "email": "michael.lawson@reqres.in",
            "first_name": "Michael",
            "last_name": "Lawson",
            "avatar": "https://reqres.in/img/faces/7-image.jpg"
        },
        {
            "id": 8,
            "email": "lindsay.ferguson@reqres.in",
            "first_name": "Lindsay",
            "last_name": "Ferguson",
            "avatar": "https://reqres.in/img/faces/8-image.jpg"
        },
        {
            "id": 9,
            "email": "tobias.funke@reqres.in",
            "first_name": "Tobias",
            "last_name": "Funke",
            "avatar": "https://reqres.in/img/faces/9-image.jpg"
        },
        {
            "id": 10,
            "email": "byron.fields@reqres.in",
            "first_name": "Byron",
            "last_name": "Fields",
            "avatar": "https://reqres.in/img/faces/10-image.jpg"
        },
        {
            "id": 11,
            "email": "george.edwards@reqres.in",
            "first_name": "George",
            "last_name": "Edwards",
            "avatar": "https://reqres.in/img/faces/11-image.jpg"
        },
        {
            "id": 12,
            "email": "rachel.howell@reqres.in",
            "first_name": "Rachel",
            "last_name": "Howell",
            "avatar": "https://reqres.in/img/faces/12-image.jpg"
        }
    ],
    "support": {
        "url": "https://contentcaddy.io?utm_source=reqres&utm_medium=json&utm_campaign=referral",
        "text": "Tired of writing endless social media content? Let Content Caddy generate it for you."
    }
}
Previous Name Before PATCH: Emma
Request method:	PATCH
Request URI:	https://reqres.in/api/users/3
Proxy:			<none>
Request params:	<none>
Query params:	<none>
Form params:	<none>
Path params:	<none>
Headers:		Accept=*/*
				Content-Type=application/json
Cookies:		<none>
Multiparts:		<none>
Body:
{
    "first_name": "Indra New Patch"
}
HTTP/1.1 200 OK
Date: Sat, 01 Feb 2025 10:42:47 GMT
Content-Type: application/json; charset=utf-8
Transfer-Encoding: chunked
Connection: keep-alive
Report-To: {"group":"heroku-nel","max_age":3600,"endpoints":[{"url":"https://nel.heroku.com/reports?ts=1738406567&sid=c4c9725f-1ab0-44d8-820f-430df2718e11&s=sPYZ5%2Fztaje%2FpI7CBUpxDZmxeyR939wOEEaGmQv7n3w%3D"}]}
Reporting-Endpoints: heroku-nel=https://nel.heroku.com/reports?ts=1738406567&sid=c4c9725f-1ab0-44d8-820f-430df2718e11&s=sPYZ5%2Fztaje%2FpI7CBUpxDZmxeyR939wOEEaGmQv7n3w%3D
Nel: {"report_to":"heroku-nel","max_age":3600,"success_fraction":0.005,"failure_fraction":0.05,"response_headers":["Via"]}
X-Powered-By: Express
Access-Control-Allow-Origin: *
Etag: W/"47-r1P97ln0KpFfmKE/CAw58xJEuyk"
Via: 1.1 vegur
cf-cache-status: DYNAMIC
Server: cloudflare
CF-RAY: 90b15632f99510b2-ORD
Content-Encoding: gzip
server-timing: cfL4;desc="?proto=TCP&rtt=1695&min_rtt=1636&rtt_var=656&sent=6&recv=7&lost=0&retrans=0&sent_bytes=3106&recv_bytes=845&delivery_rate=2618581&cwnd=252&unsent_bytes=0&cid=40228c6261f00c47&ts=190&x=0"

{
    "first_name": "Indra New Patch",
    "updatedAt": "2025-02-01T10:42:47.015Z"
}
HTTP/1.1 201 Created
Date: Sat, 01 Feb 2025 10:42:47 GMT
Content-Type: application/json; charset=utf-8
Content-Length: 82
Connection: keep-alive
Report-To: {"group":"heroku-nel","max_age":3600,"endpoints":[{"url":"https://nel.heroku.com/reports?ts=1738406567&sid=c4c9725f-1ab0-44d8-820f-430df2718e11&s=sPYZ5%2Fztaje%2FpI7CBUpxDZmxeyR939wOEEaGmQv7n3w%3D"}]}
Reporting-Endpoints: heroku-nel=https://nel.heroku.com/reports?ts=1738406567&sid=c4c9725f-1ab0-44d8-820f-430df2718e11&s=sPYZ5%2Fztaje%2FpI7CBUpxDZmxeyR939wOEEaGmQv7n3w%3D
Nel: {"report_to":"heroku-nel","max_age":3600,"success_fraction":0.005,"failure_fraction":0.05,"response_headers":["Via"]}
X-Powered-By: Express
Access-Control-Allow-Origin: *
Etag: W/"52-uJ6G9yY/a2G3f1XeQ2RKFoqKxuQ"
Via: 1.1 vegur
cf-cache-status: DYNAMIC
Server: cloudflare
CF-RAY: 90b156346f2a6338-ORD
server-timing: cfL4;desc="?proto=TCP&rtt=1826&min_rtt=1705&rtt_var=726&sent=6&recv=7&lost=0&retrans=0&sent_bytes=3107&recv_bytes=855&delivery_rate=2512609&cwnd=252&unsent_bytes=0&cid=3259d7a2ab338fa6&ts=181&x=0"

{
    "name": "Indra",
    "job": "Advisor",
    "id": "479",
    "createdAt": "2025-02-01T10:42:47.236Z"
}
Previous Name Before PUT: Janet
Request method:	PUT
Request URI:	https://reqres.in/api/users/2
Proxy:			<none>
Request params:	<none>
Query params:	<none>
Form params:	<none>
Path params:	<none>
Headers:		Accept=*/*
				Content-Type=application/json
Cookies:		<none>
Multiparts:		<none>
Body:
{
    "last_name": "Weaver",
    "id": 2,
    "avatar": "https://reqres.in/img/faces/2-image.jpg",
    "first_name": "Indra New Put",
    "email": "janet.weaver@reqres.in"
}
HTTP/1.1 200 OK
Date: Sat, 01 Feb 2025 10:42:47 GMT
Content-Type: application/json; charset=utf-8
Transfer-Encoding: chunked
Connection: keep-alive
Report-To: {"group":"heroku-nel","max_age":3600,"endpoints":[{"url":"https://nel.heroku.com/reports?ts=1738406567&sid=c4c9725f-1ab0-44d8-820f-430df2718e11&s=sPYZ5%2Fztaje%2FpI7CBUpxDZmxeyR939wOEEaGmQv7n3w%3D"}]}
Reporting-Endpoints: heroku-nel=https://nel.heroku.com/reports?ts=1738406567&sid=c4c9725f-1ab0-44d8-820f-430df2718e11&s=sPYZ5%2Fztaje%2FpI7CBUpxDZmxeyR939wOEEaGmQv7n3w%3D
Nel: {"report_to":"heroku-nel","max_age":3600,"success_fraction":0.005,"failure_fraction":0.05,"response_headers":["Via"]}
X-Powered-By: Express
Access-Control-Allow-Origin: *
Etag: W/"b5-fpBjCB9a6sF4MqL2JlZceTuE3W0"
Via: 1.1 vegur
CF-Cache-Status: DYNAMIC
Vary: Accept-Encoding
Server: cloudflare
CF-RAY: 90b1563749d8eaf9-ORD
Content-Encoding: gzip
server-timing: cfL4;desc="?proto=TCP&rtt=2633&min_rtt=2622&rtt_var=1006&sent=6&recv=7&lost=0&retrans=0&sent_bytes=3106&recv_bytes=954&delivery_rate=1577900&cwnd=252&unsent_bytes=0&cid=5f414b7bc0f7915a&ts=192&x=0"

{
    "last_name": "Weaver",
    "id": 2,
    "avatar": "https://reqres.in/img/faces/2-image.jpg",
    "first_name": "Indra New Put",
    "email": "janet.weaver@reqres.in",
    "updatedAt": "2025-02-01T10:42:47.695Z"
}
Request method:	GET
Request URI:	https://reqres.in/api/users/5
Proxy:			<none>
Request params:	<none>
Query params:	<none>
Form params:	<none>
Path params:	<none>
Headers:		Accept=*/*
Cookies:		<none>
Multiparts:		<none>
Body:			<none>
HTTP/1.1 200 OK
Date: Sat, 01 Feb 2025 10:42:47 GMT
Content-Type: application/json; charset=utf-8
Transfer-Encoding: chunked
Connection: keep-alive
Report-To: {"group":"heroku-nel","max_age":3600,"endpoints":[{"url":"https://nel.heroku.com/reports?ts=1737849307&sid=c4c9725f-1ab0-44d8-820f-430df2718e11&s=0RmQuaF7O4MIAkuNyJt0TjjkWypP8xEsqpRk%2B76ryFM%3D"}]}
Reporting-Endpoints: heroku-nel=https://nel.heroku.com/reports?ts=1737849307&sid=c4c9725f-1ab0-44d8-820f-430df2718e11&s=0RmQuaF7O4MIAkuNyJt0TjjkWypP8xEsqpRk%2B76ryFM%3D
Nel: {"report_to":"heroku-nel","max_age":3600,"success_fraction":0.005,"failure_fraction":0.05,"response_headers":["Via"]}
X-Powered-By: Express
Access-Control-Allow-Origin: *
Etag: W/"156-G8PxZj/FnZQ+SpFBW92ACW7nB0E"
Via: 1.1 vegur
Cache-Control: max-age=14400
CF-Cache-Status: REVALIDATED
Vary: Accept-Encoding
Server: cloudflare
CF-RAY: 90b15638af0df855-ORD
Content-Encoding: gzip
server-timing: cfL4;desc="?proto=TCP&rtt=1866&min_rtt=1766&rtt_var=734&sent=6&recv=7&lost=0&retrans=0&sent_bytes=3106&recv_bytes=759&delivery_rate=2425821&cwnd=252&unsent_bytes=0&cid=167db0369bc2b677&ts=183&x=0"

{
    "data": {
        "id": 5,
        "email": "charles.morris@reqres.in",
        "first_name": "Charles",
        "last_name": "Morris",
        "avatar": "https://reqres.in/img/faces/5-image.jpg"
    },
    "support": {
        "url": "https://contentcaddy.io?utm_source=reqres&utm_medium=json&utm_campaign=referral",
        "text": "Tired of writing endless social media content? Let Content Caddy generate it for you."
    }
}
]]></system-out>
  <system-err><![CDATA[]]></system-err>
</testsuite>
